Differential expression with DESeq2
…
Order each table by padj so significant genes are at the top

result_list2<-result_list %>% 
  map(~as.data.frame(.x) %>% 
        rownames_to_column("geneID") %>% 
        mutate(threshold=case_when(padj<=padj_thresh & abs(log2FoldChange)>=l2fc_thresh~"Significant",T~"Not Significant")) %>% 
        arrange(padj) %>% 
        as_tibble()
  )
result_list2

## $condition_MOV10_OE_vs_Control
## # A tibble: 63,345 × 7
##    geneID          baseMean log2FoldChange  lfcSE    pvalue      padj threshold 
##    <chr>              <dbl>          <dbl>  <dbl>     <dbl>     <dbl> <chr>     
##  1 ENSG00000155363   94597.          7.47  0.134  0         0         Significa…
##  2 ENSG00000189060    7875.          1.52  0.0688 1.09e-109 9.95e-106 Significa…
##  3 ENSG00000173110     257.          6.52  0.359  6.20e- 74 3.79e- 70 Significa…
##  4 ENSG00000270882    2234.          1.73  0.101  7.71e- 67 3.53e- 63 Significa…
##  5 ENSG00000187837    1605.          1.48  0.0933 4.53e- 58 1.47e- 54 Significa…
##  6 ENSG00000265972    5204.          1.39  0.0872 4.82e- 58 1.47e- 54 Significa…
##  7 ENSG00000155090    1699.          1.20  0.0805 2.01e- 51 5.26e- 48 Significa…
##  8 ENSG00000102317    8191.         -0.750 0.0523 9.57e- 48 2.19e- 44 Significa…
##  9 ENSG00000230678     655.          7.57  0.534  3.50e- 47 7.13e- 44 Significa…
## 10 ENSG00000112972   12430.          0.926 0.0659 4.48e- 46 8.21e- 43 Significa…
## # … with 63,335 more rows
## 
## $condition_MOV10_KD_vs_Control
## # A tibble: 63,345 × 7
##    geneID          baseMean log2FoldChange  lfcSE   pvalue     padj threshold  
##    <chr>              <dbl>          <dbl>  <dbl>    <dbl>    <dbl> <chr>      
##  1 ENSG00000116962    6310.          1.10  0.0676 5.57e-61 9.82e-57 Significant
##  2 ENSG00000143183    1784.          1.19  0.0776 2.69e-54 2.37e-50 Significant
##  3 ENSG00000270882    2234.          1.67  0.112  1.82e-51 1.07e-47 Significant
##  4 ENSG00000168036   11650.          0.817 0.0559 7.60e-49 3.35e-45 Significant
##  5 ENSG00000038274    2424.         -1.07  0.0748 1.50e-47 5.29e-44 Significant
##  6 ENSG00000116473    2152.         -1.02  0.0718 8.37e-47 2.46e-43 Significant
##  7 ENSG00000124762    2759.          1.16  0.0819 1.69e-46 4.25e-43 Significant
##  8 ENSG00000082458    4642.         -0.733 0.0535 6.25e-44 1.38e-40 Significant
##  9 ENSG00000109971   22607.          0.739 0.0568 8.34e-40 1.63e-36 Significant
## 10 ENSG00000139219    3768.          0.861 0.0670 7.20e-39 1.27e-35 Significant
## # … with 63,335 more rows
…
## Map each of our result names to a function that saves each table in our results_list
names(result_list_anno) %>% map(function(x){
  dir.create(x)
  write_tsv(result_list_anno[[x]],paste0(x,"/DEseq_result.tsv"),col_names = T,)
})

## Warning in dir.create(x): 'condition_MOV10_OE_vs_Control' already exists

## Warning in dir.create(x): 'condition_MOV10_KD_vs_Control' already exists

## [[1]]
## # A tibble: 63,345 × 10
##    geneID baseMean log2FoldChange  lfcSE    pvalue      padj threshold gene_name
##    <chr>     <dbl>          <dbl>  <dbl>     <dbl>     <dbl> <chr>     <chr>    
##  1 ENSG0…   94597.          7.47  0.134  0         0         Signific… MOV10    
##  2 ENSG0…    7875.          1.52  0.0688 1.09e-109 9.95e-106 Signific… H1-0     
##  3 ENSG0…     257.          6.52  0.359  6.20e- 74 3.79e- 70 Signific… HSPA6    
##  4 ENSG0…    2234.          1.73  0.101  7.71e- 67 3.53e- 63 Signific… H4C14    
##  5 ENSG0…    1605.          1.48  0.0933 4.53e- 58 1.47e- 54 Signific… H1-2     
##  6 ENSG0…    5204.          1.39  0.0872 4.82e- 58 1.47e- 54 Signific… TXNIP    
##  7 ENSG0…    1699.          1.20  0.0805 2.01e- 51 5.26e- 48 Signific… KLF10    
##  8 ENSG0…    8191.         -0.750 0.0523 9.57e- 48 2.19e- 44 Signific… RBM3     
##  9 ENSG0…     655.          7.57  0.534  3.50e- 47 7.13e- 44 Signific… BRD2     
## 10 ENSG0…   12430.          0.926 0.0659 4.48e- 46 8.21e- 43 Signific… HMGCS1   
## # … with 63,335 more rows, and 2 more variables: gene_biotype <fct>,
## #   entrezid <int>
## 
## [[2]]
## # A tibble: 63,345 × 10
##    geneID   baseMean log2FoldChange  lfcSE   pvalue     padj threshold gene_name
##    <chr>       <dbl>          <dbl>  <dbl>    <dbl>    <dbl> <chr>     <chr>    
##  1 ENSG000…    6310.          1.10  0.0676 5.57e-61 9.82e-57 Signific… NID1     
##  2 ENSG000…    1784.          1.19  0.0776 2.69e-54 2.37e-50 Signific… TMCO1    
##  3 ENSG000…    2234.          1.67  0.112  1.82e-51 1.07e-47 Signific… H4C14    
##  4 ENSG000…   11650.          0.817 0.0559 7.60e-49 3.35e-45 Signific… CTNNB1   
##  5 ENSG000…    2424.         -1.07  0.0748 1.50e-47 5.29e-44 Signific… MAT2B    
##  6 ENSG000…    2152.         -1.02  0.0718 8.37e-47 2.46e-43 Signific… RAP1A    
##  7 ENSG000…    2759.          1.16  0.0819 1.69e-46 4.25e-43 Signific… CDKN1A   
##  8 ENSG000…    4642.         -0.733 0.0535 6.25e-44 1.38e-40 Signific… DLG3     
##  9 ENSG000…   22607.          0.739 0.0568 8.34e-40 1.63e-36 Signific… HSPA8    
## 10 ENSG000…    3768.          0.861 0.0670 7.20e-39 1.27e-35 Signific… COL2A1   
## # … with 63,335 more rows, and 2 more variables: gene_biotype <fct>,
## #   entrezid <int>
…
